…
<img src="analysis_files/figure-gfm/unnamed-chunk-17-1.png" title="OA shares per sector and OA category for individual institutions. The relationship between OA shares of individual OA categories and overall OA share is shown." alt="OA shares per sector and OA category for individual institutions. The relationship between OA shares of individual OA categories and overall OA share is shown." width="90%" style="display: block; margin: auto;" />

### Discussion

  - Upset plot of overlapping evidence categories to show influence of
    semantic scholar, webscraping.

In order to demonstrate the prevalence of evidence categories in
Unpaywall, we load the original, non-categorized Unpaywall data:

We now determine the evidence combinations for all matched DOIs and then
calculate the frequency of each combination found.

    #> # A tibble: 3,809 x 2
    #>    evidence                                                               n
    #>    <chr>                                                              <int>
    #>  1 oa repository (via OAI-PMH doi match)                              39400
    #>  2 open (via free pdf)                                                19599
    #>  3 oa journal (via doaj)&oa repository (semantic scholar lookup)&oa … 15732
    #>  4 oa repository (via OAI-PMH title and first author match)           15666
    #>  5 oa repository (semantic scholar lookup)                            12377
    #>  6 oa journal (via doaj)&oa repository (via OAI-PMH doi match)&oa re… 11847
    #>  7 oa repository (via OAI-PMH doi match)&oa repository (via pmcid lo… 11019
    #>  8 oa repository (semantic scholar lookup)&oa repository (via OAI-PM… 10892
    #>  9 oa repository (via OAI-PMH doi match)&oa repository (via OAI-PMH … 10556
    #> 10 oa repository (via OAI-PMH doi match)&oa repository (via pmcid lo…  8831
    #> # … with 3,799 more rows
…
